module pchkaty_web

go 1.13

require (
	github.com/Pallinder/go-randomdata v1.2.0
	github.com/getsentry/sentry-go v0.5.1
	github.com/gin-contrib/cors v1.3.0
	github.com/gin-gonic/gin v1.5.0
	github.com/jinzhu/gorm v1.9.12
	github.com/joho/godotenv v1.3.0
	github.com/lib/pq v1.3.0
)
